# target: domDebug.shlb
mozilla/dom/src/base/nsFrameList.cpp
mozilla/dom/src/base/nsGlobalWindow.cpp
mozilla/dom/src/base/nsJSEnvironment.cpp
mozilla/dom/src/base/nsJSLocation.cpp
mozilla/dom/src/base/nsJSNavigator.cpp
mozilla/dom/src/base/nsJSUtils.cpp
mozilla/dom/src/base/nsJSWindow.cpp
mozilla/dom/src/base/nsJSWindowCollection.cpp
mozilla/dom/src/base/nsLocation.cpp
mozilla/dom/src/build/nsDOMFactory.cpp
mozilla/dom/src/build/nsHTMLTagsEnums.cpp
mozilla/dom/src/coreDOM/nsJSAttr.cpp
mozilla/dom/src/coreDOM/nsJSCDATASection.cpp
mozilla/dom/src/coreDOM/nsJSCharacterData.cpp
mozilla/dom/src/coreDOM/nsJSComment.cpp
mozilla/dom/src/coreDOM/nsJSDocument.cpp
mozilla/dom/src/coreDOM/nsJSDocumentFragment.cpp
mozilla/dom/src/coreDOM/nsJSDocumentType.cpp
mozilla/dom/src/coreDOM/nsJSDOMImplementation.cpp
mozilla/dom/src/coreDOM/nsJSElement.cpp
mozilla/dom/src/coreDOM/nsJSEntity.cpp
mozilla/dom/src/coreDOM/nsJSEntityReference.cpp
mozilla/dom/src/coreDOM/nsJSNamedNodeMap.cpp
mozilla/dom/src/coreDOM/nsJSNode.cpp
mozilla/dom/src/coreDOM/nsJSNodeList.cpp
mozilla/dom/src/coreDOM/nsJSNotation.cpp
mozilla/dom/src/coreDOM/nsJSProcessingInstruction.cpp
mozilla/dom/src/coreDOM/nsJSStyleSheet.cpp
mozilla/dom/src/coreDOM/nsJSStyleSheetCollection.cpp
mozilla/dom/src/coreDOM/nsJSText.cpp
mozilla/dom/src/css/nsJSCSS2Properties.cpp
mozilla/dom/src/css/nsJSCSSFontFaceRule.cpp
mozilla/dom/src/css/nsJSCSSMediaRule.cpp
mozilla/dom/src/css/nsJSCSSPageRule.cpp
mozilla/dom/src/css/nsJSCSSRule.cpp
mozilla/dom/src/css/nsJSCSSStyleDeclaration.cpp
mozilla/dom/src/css/nsJSCSSStyleRule.cpp
mozilla/dom/src/css/nsJSCSSStyleRuleCollection.cpp
mozilla/dom/src/css/nsJSCSSStyleSheet.cpp
mozilla/dom/src/events/nsJSEvent.cpp
mozilla/dom/src/events/nsJSEventListener.cpp
mozilla/dom/src/html/nsJSHTMLAnchorElement.cpp
mozilla/dom/src/html/nsJSHTMLAppletElement.cpp
mozilla/dom/src/html/nsJSHTMLAreaElement.cpp
mozilla/dom/src/html/nsJSHTMLBaseElement.cpp
mozilla/dom/src/html/nsJSHTMLBaseFontElement.cpp
mozilla/dom/src/html/nsJSHTMLBlockquoteElement.cpp
mozilla/dom/src/html/nsJSHTMLBodyElement.cpp
mozilla/dom/src/html/nsJSHTMLBRElement.cpp
mozilla/dom/src/html/nsJSHTMLButtonElement.cpp
mozilla/dom/src/html/nsJSHTMLCollection.cpp
mozilla/dom/src/html/nsJSHTMLDirectoryElement.cpp
mozilla/dom/src/html/nsJSHTMLDivElement.cpp
mozilla/dom/src/html/nsJSHTMLDListElement.cpp
mozilla/dom/src/html/nsJSHTMLDocument.cpp
mozilla/dom/src/html/nsJSHTMLElement.cpp
mozilla/dom/src/html/nsJSHTMLFieldSetElement.cpp
mozilla/dom/src/html/nsJSHTMLFontElement.cpp
mozilla/dom/src/html/nsJSHTMLFormElement.cpp
mozilla/dom/src/html/nsJSHTMLFrameElement.cpp
mozilla/dom/src/html/nsJSHTMLFrameSetElement.cpp
mozilla/dom/src/html/nsJSHTMLHeadElement.cpp
mozilla/dom/src/html/nsJSHTMLHeadingElement.cpp
mozilla/dom/src/html/nsJSHTMLHRElement.cpp
mozilla/dom/src/html/nsJSHTMLHtmlElement.cpp
mozilla/dom/src/html/nsJSHTMLIFrameElement.cpp
mozilla/dom/src/html/nsJSHTMLImageElement.cpp
mozilla/dom/src/html/nsJSHTMLInputElement.cpp
mozilla/dom/src/html/nsJSHTMLIsIndexElement.cpp
mozilla/dom/src/html/nsJSHTMLLabelElement.cpp
mozilla/dom/src/html/nsJSHTMLLegendElement.cpp
mozilla/dom/src/html/nsJSHTMLLIElement.cpp
mozilla/dom/src/html/nsJSHTMLLinkElement.cpp
mozilla/dom/src/html/nsJSHTMLMapElement.cpp
mozilla/dom/src/html/nsJSHTMLMenuElement.cpp
mozilla/dom/src/html/nsJSHTMLMetaElement.cpp
mozilla/dom/src/html/nsJSHTMLModElement.cpp
mozilla/dom/src/html/nsJSHTMLObjectElement.cpp
mozilla/dom/src/html/nsJSHTMLOListElement.cpp
mozilla/dom/src/html/nsJSHTMLOptGroupElement.cpp
mozilla/dom/src/html/nsJSHTMLOptionElement.cpp
mozilla/dom/src/html/nsJSHTMLParagraphElement.cpp
mozilla/dom/src/html/nsJSHTMLParamElement.cpp
mozilla/dom/src/html/nsJSHTMLPreElement.cpp
mozilla/dom/src/html/nsJSHTMLQuoteElement.cpp
mozilla/dom/src/html/nsJSHTMLScriptElement.cpp
mozilla/dom/src/html/nsJSHTMLSelectElement.cpp
mozilla/dom/src/html/nsJSHTMLStyleElement.cpp
mozilla/dom/src/html/nsJSHTMLTableCaptionElement.cpp
mozilla/dom/src/html/nsJSHTMLTableCellElement.cpp
mozilla/dom/src/html/nsJSHTMLTableColElement.cpp
mozilla/dom/src/html/nsJSHTMLTableElement.cpp
mozilla/dom/src/html/nsJSHTMLTableRowElement.cpp
mozilla/dom/src/html/nsJSHTMLTableSectionElement.cpp
mozilla/dom/src/html/nsJSHTMLTextAreaElement.cpp
mozilla/dom/src/html/nsJSHTMLTitleElement.cpp
mozilla/dom/src/html/nsJSHTMLUListElement.cpp
mozilla/dom/src/jsurl/jsurl.cpp
mozilla/lib/libpwcac/pwcacapi.c
mozilla/lib/xp/allxpstr.c
mozilla/lib/xp/xp_hash.c
mozilla/lib/xp/xp_list.c
mozilla/lib/xp/xp_qsort.c
mozilla/lib/xp/xp_str.c
mozilla/nsprpub/lib/libc/src/base64.c
mozilla/webshell/tests/viewer/macToBeImplemented.cp
mozilla/webshell/tests/viewer/nsMacFile.cp
