# target: xpfeViewerDebug
mozilla/cmd/macfe/central/mactime.c
mozilla/lib/libpwcac/pwcacapi.c
mozilla/lib/xp/allxpstr.c
mozilla/lib/xp/xp_hash.c
mozilla/lib/xp/xp_list.c
mozilla/lib/xp/xp_qsort.c
mozilla/lib/xp/xp_str.c
mozilla/modules/libpref/src/prefapi.c
mozilla/modules/libutil/src/obs.c
mozilla/modules/plugin/nglsrc/nsPluginFactory.cpp
mozilla/modules/plugin/nglsrc/nsPluginHostImpl.cpp
mozilla/webshell/tests/viewer/macToBeImplemented.cp
mozilla/webshell/tests/viewer/nsMacFile.cp
mozilla/xpfe/xpviewer/src/nsBrowserMain.cpp
mozilla/xpfe/xpviewer/src/nsBrowserWindow.cpp
mozilla/xpfe/xpviewer/src/nsFindDialog.cpp
mozilla/xpfe/xpviewer/src/nsSetupRegistry.cpp
mozilla/xpfe/xpviewer/src/nsViewerApp.cpp
mozilla/xpfe/xpviewer/src/nsXPBaseWindow.cpp
