# target: layoutDebug.shlb
mozilla/layout/base/src/nsContentList.cpp
mozilla/layout/base/src/nsDocument.cpp
mozilla/layout/base/src/nsDocumentFragment.cpp
mozilla/layout/base/src/nsFrameImageLoader.cpp
mozilla/layout/base/src/nsFrameUtil.cpp
mozilla/layout/base/src/nsGalleyContext.cpp
mozilla/layout/base/src/nsGenericElement.cpp
mozilla/layout/base/src/nsLayoutAtoms.cpp
mozilla/layout/base/src/nsNameSpaceManager.cpp
mozilla/layout/base/src/nsPresContext.cpp
mozilla/layout/base/src/nsPrintContext.cpp
mozilla/layout/base/src/nsPrintPreviewContext.cpp
mozilla/layout/base/src/nsRange.cpp
mozilla/layout/base/src/nsRangeList.cpp
mozilla/layout/base/src/nsSpaceManager.cpp
mozilla/layout/base/src/nsStyleContext.cpp
mozilla/layout/base/src/nsStyleCoord.cpp
mozilla/layout/base/src/nsStyleSet.cpp
mozilla/layout/base/src/nsTextFragment.cpp
mozilla/layout/base/src/nsXIFConverter.cpp
mozilla/layout/build/nsLayoutFactory.cpp
mozilla/layout/events/src/nsDOMEvent.cpp
mozilla/layout/events/src/nsDOMEventsIIDs.cpp
mozilla/layout/events/src/nsEventListenerManager.cpp
mozilla/layout/events/src/nsEventStateManager.cpp
mozilla/layout/html/base/src/nsAbsoluteFrame.cpp
mozilla/layout/html/base/src/nsAreaFrame.cpp
mozilla/layout/html/base/src/nsBlockBandData.cpp
mozilla/layout/html/base/src/nsBlockFrame.cpp
mozilla/layout/html/base/src/nsBlockReflowContext.cpp
mozilla/layout/html/base/src/nsBodyFrame.cpp
mozilla/layout/html/base/src/nsBRFrame.cpp
mozilla/layout/html/base/src/nsBulletFrame.cpp
mozilla/layout/html/base/src/nsContainerFrame.cpp
mozilla/layout/html/base/src/nsFrame.cpp
mozilla/layout/html/base/src/nsFrameReflowState.cpp
mozilla/layout/html/base/src/nsGlobalVariables.cpp
mozilla/layout/html/base/src/nsHRFrame.cpp
mozilla/layout/html/base/src/nsHTMLAtoms.cpp
mozilla/layout/html/base/src/nsHTMLContainerFrame.cpp
mozilla/layout/html/base/src/nsHTMLFrame.cpp
mozilla/layout/html/base/src/nsHTMLIIDs.cpp
mozilla/layout/html/base/src/nsHTMLReflowCommand.cpp
mozilla/layout/html/base/src/nsImageFrame.cpp
mozilla/layout/html/base/src/nsImageMap.cpp
mozilla/layout/html/base/src/nsInlineFrame.cpp
mozilla/layout/html/base/src/nsInlineReflow.cpp
mozilla/layout/html/base/src/nsLeafFrame.cpp
mozilla/layout/html/base/src/nsLineBox.cpp
mozilla/layout/html/base/src/nsLineLayout.cpp
mozilla/layout/html/base/src/nsObjectFrame.cpp
mozilla/layout/html/base/src/nsPageFrame.cpp
mozilla/layout/html/base/src/nsPlaceholderFrame.cpp
mozilla/layout/html/base/src/nsPresShell.cpp
mozilla/layout/html/base/src/nsScrollFrame.cpp
mozilla/layout/html/base/src/nsSimplePageSequence.cpp
mozilla/layout/html/base/src/nsSpacerFrame.cpp
mozilla/layout/html/base/src/nsSplittableFrame.cpp
mozilla/layout/html/base/src/nsTextFrame.cpp
mozilla/layout/html/base/src/nsTextTransformer.cpp
mozilla/layout/html/base/src/nsWBRFrame.cpp
mozilla/layout/html/content/src/GenericElementCollection.cpp
mozilla/layout/html/content/src/nsCommentNode.cpp
mozilla/layout/html/content/src/nsGenericDOMDataNode.cpp
mozilla/layout/html/content/src/nsGenericDOMHTMLCollection.cpp
mozilla/layout/html/content/src/nsGenericHTMLElement.cpp
mozilla/layout/html/content/src/nsHTMLAnchorElement.cpp
mozilla/layout/html/content/src/nsHTMLAppletElement.cpp
mozilla/layout/html/content/src/nsHTMLAreaElement.cpp
mozilla/layout/html/content/src/nsHTMLBaseElement.cpp
mozilla/layout/html/content/src/nsHTMLBaseFontElement.cpp
mozilla/layout/html/content/src/nsHTMLBodyElement.cpp
mozilla/layout/html/content/src/nsHTMLBRElement.cpp
mozilla/layout/html/content/src/nsHTMLButtonElement.cpp
mozilla/layout/html/content/src/nsHTMLDelElement.cpp
mozilla/layout/html/content/src/nsHTMLDirectoryElement.cpp
mozilla/layout/html/content/src/nsHTMLDivElement.cpp
mozilla/layout/html/content/src/nsHTMLDListElement.cpp
mozilla/layout/html/content/src/nsHTMLEmbedElement.cpp
mozilla/layout/html/content/src/nsHTMLFieldSetElement.cpp
mozilla/layout/html/content/src/nsHTMLFontElement.cpp
mozilla/layout/html/content/src/nsHTMLFormElement.cpp
mozilla/layout/html/content/src/nsHTMLFrameElement.cpp
mozilla/layout/html/content/src/nsHTMLFrameSetElement.cpp
mozilla/layout/html/content/src/nsHTMLHeadElement.cpp
mozilla/layout/html/content/src/nsHTMLHeadingElement.cpp
mozilla/layout/html/content/src/nsHTMLHRElement.cpp
mozilla/layout/html/content/src/nsHTMLHtmlElement.cpp
mozilla/layout/html/content/src/nsHTMLIFrameElement.cpp
mozilla/layout/html/content/src/nsHTMLImageElement.cpp
mozilla/layout/html/content/src/nsHTMLInputElement.cpp
mozilla/layout/html/content/src/nsHTMLInsElement.cpp
mozilla/layout/html/content/src/nsHTMLIsIndexElement.cpp
mozilla/layout/html/content/src/nsHTMLLabelElement.cpp
mozilla/layout/html/content/src/nsHTMLLayerElement.cpp
mozilla/layout/html/content/src/nsHTMLLegendElement.cpp
mozilla/layout/html/content/src/nsHTMLLIElement.cpp
mozilla/layout/html/content/src/nsHTMLLinkElement.cpp
mozilla/layout/html/content/src/nsHTMLMapElement.cpp
mozilla/layout/html/content/src/nsHTMLMenuElement.cpp
mozilla/layout/html/content/src/nsHTMLMetaElement.cpp
mozilla/layout/html/content/src/nsHTMLModElement.cpp
mozilla/layout/html/content/src/nsHTMLObjectElement.cpp
mozilla/layout/html/content/src/nsHTMLOListElement.cpp
mozilla/layout/html/content/src/nsHTMLOptGroupElement.cpp
mozilla/layout/html/content/src/nsHTMLOptionElement.cpp
mozilla/layout/html/content/src/nsHTMLParagraphElement.cpp
mozilla/layout/html/content/src/nsHTMLParamElement.cpp
mozilla/layout/html/content/src/nsHTMLPreElement.cpp
mozilla/layout/html/content/src/nsHTMLQuoteElement.cpp
mozilla/layout/html/content/src/nsHTMLScriptElement.cpp
mozilla/layout/html/content/src/nsHTMLSelectElement.cpp
mozilla/layout/html/content/src/nsHTMLSpacerElement.cpp
mozilla/layout/html/content/src/nsHTMLSpanElement.cpp
mozilla/layout/html/content/src/nsHTMLStyleElement.cpp
mozilla/layout/html/content/src/nsHTMLTableCaptionElement.cpp
mozilla/layout/html/content/src/nsHTMLTableCellElement.cpp
mozilla/layout/html/content/src/nsHTMLTableColElement.cpp
mozilla/layout/html/content/src/nsHTMLTableColGroupElement.cpp
mozilla/layout/html/content/src/nsHTMLTableElement.cpp
mozilla/layout/html/content/src/nsHTMLTableRowElement.cpp
mozilla/layout/html/content/src/nsHTMLTableSectionElement.cpp
mozilla/layout/html/content/src/nsHTMLTextAreaElement.cpp
mozilla/layout/html/content/src/nsHTMLTitleElement.cpp
mozilla/layout/html/content/src/nsHTMLUListElement.cpp
mozilla/layout/html/content/src/nsHTMLWBRElement.cpp
mozilla/layout/html/content/src/nsTextNode.cpp
mozilla/layout/html/document/src/nsFrameFrame.cpp
mozilla/layout/html/document/src/nsFrameSetFrame.cpp
mozilla/layout/html/document/src/nsHTMLContentSink.cpp
mozilla/layout/html/document/src/nsHTMLDocument.cpp
mozilla/layout/html/document/src/nsImageDocument.cpp
mozilla/layout/html/document/src/nsMarkupDocument.cpp
mozilla/layout/html/forms/src/nsButtonControlFrame.cpp
mozilla/layout/html/forms/src/nsCheckboxControlFrame.cpp
mozilla/layout/html/forms/src/nsFieldSetFrame.cpp
mozilla/layout/html/forms/src/nsFileControlFrame.cpp
mozilla/layout/html/forms/src/nsFormControlFrame.cpp
mozilla/layout/html/forms/src/nsFormFrame.cpp
mozilla/layout/html/forms/src/nsHTMLButtonControlFrame.cpp
mozilla/layout/html/forms/src/nsImageControlFrame.cpp
mozilla/layout/html/forms/src/nsLabelFrame.cpp
mozilla/layout/html/forms/src/nsLegendFrame.cpp
mozilla/layout/html/forms/src/nsRadioControlFrame.cpp
mozilla/layout/html/forms/src/nsSelectControlFrame.cpp
mozilla/layout/html/forms/src/nsTextControlFrame.cpp
mozilla/layout/html/style/src/nsCSSAtoms.cpp
mozilla/layout/html/style/src/nsCSSDeclaration.cpp
mozilla/layout/html/style/src/nsCSSKeywords.cpp
mozilla/layout/html/style/src/nsCSSParser.cpp
mozilla/layout/html/style/src/nsCSSProps.cpp
mozilla/layout/html/style/src/nsCSSProps2.cpp
mozilla/layout/html/style/src/nsCSSRendering.cpp
mozilla/layout/html/style/src/nsCSSScanner.cpp
mozilla/layout/html/style/src/nsCSSStyleRule.cpp
mozilla/layout/html/style/src/nsCSSStyleSheet.cpp
mozilla/layout/html/style/src/nsCSSValue.cpp
mozilla/layout/html/style/src/nsDOMCSSDeclaration.cpp
mozilla/layout/html/style/src/nsHTMLAttributes.cpp
mozilla/layout/html/style/src/nsHTMLCSSStyleSheet.cpp
mozilla/layout/html/style/src/nsHTMLStyleSheet.cpp
mozilla/layout/html/style/src/nsHTMLValue.cpp
mozilla/layout/html/style/src/nsStyleUtil.cpp
mozilla/layout/html/table/src/BasicTableLayoutStrategy.cpp
mozilla/layout/html/table/src/FixedTableLayoutStrategy.cpp
mozilla/layout/html/table/src/nsCellMap.cpp
mozilla/layout/html/table/src/nsTableCellFrame.cpp
mozilla/layout/html/table/src/nsTableColFrame.cpp
mozilla/layout/html/table/src/nsTableColGroupFrame.cpp
mozilla/layout/html/table/src/nsTableFrame.cpp
mozilla/layout/html/table/src/nsTableOuterFrame.cpp
mozilla/layout/html/table/src/nsTableRowFrame.cpp
mozilla/layout/html/table/src/nsTableRowGroupFrame.cpp
mozilla/layout/xml/content/src/nsXMLElement.cpp
mozilla/layout/xml/document/src/nsXMLContentSink.cpp
mozilla/layout/xml/document/src/nsXMLDocument.cpp
mozilla/layout/base/src/nsContentIterator.cpp