# target: widgetDebug.shlb
mozilla/widget/src/mac/nsAppShell.cpp
mozilla/widget/src/mac/nsButton.cpp
mozilla/widget/src/mac/nsCheckButton.cpp
mozilla/widget/src/mac/nsFileWidget.cpp
mozilla/widget/src/mac/nsLookAndFeel.cpp
mozilla/widget/src/mac/nsMacControl.cpp
mozilla/widget/src/mac/nsMacEventHandler.cpp
mozilla/widget/src/mac/nsMacMessagePump.cpp
mozilla/widget/src/mac/nsMacMessageSink.cpp
mozilla/widget/src/mac/nsMacWindow.cpp
mozilla/widget/src/mac/nsMenu.cpp
mozilla/widget/src/mac/nsMenuBar.cpp
mozilla/widget/src/mac/nsMenuItem.cpp
mozilla/widget/src/mac/nsRadioButton.cpp
mozilla/widget/src/mac/nsScrollbar.cpp
mozilla/widget/src/mac/nsTextAreaWidget.cpp
mozilla/widget/src/mac/nsTextWidget.cpp
mozilla/widget/src/mac/nsToolkit.cpp
mozilla/widget/src/mac/nsWidgetFactory.cpp
mozilla/widget/src/mac/nsWidgetSupport.cpp
mozilla/widget/src/mac/nsWindow.cpp
mozilla/widget/src/xpwidgets/nsBaseWidget.cpp
mozilla/widget/src/xpwidgets/nsHTColumn.cpp
mozilla/widget/src/xpwidgets/nsHTControlStripItem.cpp
mozilla/widget/src/xpwidgets/nsHTDataModel.cpp
mozilla/widget/src/xpwidgets/nsHTItem.cpp
mozilla/widget/src/xpwidgets/nsHTTreeDataModel.cpp
mozilla/widget/src/xpwidgets/nsHTTreeItem.cpp
mozilla/widget/src/xpwidgets/nsImageButton.cpp
mozilla/widget/src/xpwidgets/nsMenuButton.cpp
mozilla/widget/src/xpwidgets/nsToolbar.cpp
mozilla/widget/src/xpwidgets/nsToolbarItemHolder.cpp
mozilla/widget/src/xpwidgets/nsToolbarManager.cpp
mozilla/widget/src/xpwidgets/nsTreeView.cpp
