# target: zlibDebug.shlb
mozilla/modules/zlib/src/adler32.c
mozilla/modules/zlib/src/compress.c
mozilla/modules/zlib/src/crc32.c
mozilla/modules/zlib/src/deflate.c
mozilla/modules/zlib/src/gzio.c
mozilla/modules/zlib/src/infblock.c
mozilla/modules/zlib/src/infcodes.c
mozilla/modules/zlib/src/inffast.c
mozilla/modules/zlib/src/inflate.c
mozilla/modules/zlib/src/inftrees.c
mozilla/modules/zlib/src/infutil.c
mozilla/modules/zlib/src/trees.c
mozilla/modules/zlib/src/uncompr.c
mozilla/modules/zlib/src/zutil.c
