# target: gfxDebug.shlb
mozilla/gfx/src/mac/nsDeviceContextMac.cpp
mozilla/gfx/src/mac/nsDeviceContextSpecFactoryM.cpp
mozilla/gfx/src/mac/nsDeviceContextSpecMac.cpp
mozilla/gfx/src/mac/nsFontMetricsMac.cpp
mozilla/gfx/src/mac/nsGfxFactoryMac.cpp
mozilla/gfx/src/mac/nsImageMac.cpp
mozilla/gfx/src/mac/nsRegionMac.cpp
mozilla/gfx/src/mac/nsRenderingContextMac.cpp
mozilla/gfx/src/nsColor.cpp
mozilla/gfx/src/nsColorNames.cpp
mozilla/gfx/src/nsColorNamesRGB.cpp
mozilla/gfx/src/nsDeviceContext.cpp
mozilla/gfx/src/nsFont.cpp
mozilla/gfx/src/nsImageGroup.cpp
mozilla/gfx/src/nsImageManager.cpp
mozilla/gfx/src/nsImageNetContextAsync.cpp
mozilla/gfx/src/nsImageNetContextSync.cpp
mozilla/gfx/src/nsImageRenderer.cpp
mozilla/gfx/src/nsImageRequest.cpp
mozilla/gfx/src/nsImageSystemServices.cpp
mozilla/gfx/src/nsImageURL.cpp
mozilla/gfx/src/nsRect.cpp
mozilla/gfx/src/nsTransform2D.cpp
