/* XPM */
static char *TB_Home[] = {
/* width height num_colors chars_per_pixel */
"    23    21       14            1",
/* colors */
". c #333366",
"# c #ff6633",
"a c #6666cc",
"b c #00373c",
"c c #c0c0c0",
"d c none",
"e c #808080",
"f c #ff66cc",
"g c #9999ff",
"h c #ffffff",
"i c #008000",
"j c #222222",
"k c #808000",
"l c #429aa7",
/* pixels */
"ddddddddddddddddddddddd",
"ddddddddddddddhg.addddd",
"dddddddddggggghg.addddd",
"dddddddddaaaaacg.addddd",
"ddddddddahaaaacg.addddd",
"dddddddaj.haaacg.addddd",
"ddddddajag.haaag..ddddd",
"dddddajagcgahaaa.a.dddd",
"ddddajagcgcgacaaa.aaddd",
"ddda.agcgcgcgacaaaa.add",
"dda.agcgcgcgcg.caaaaaad",
"da.jgcgcgcgcgcg.gjj...d",
"dddacgcgaa.fcgcgabb.add",
"ddddgcgcaaaegcgcaj..ddd",
"ddddcgcgaaaecgcga..addd",
"ddddgcgcaaafgcgca.aaddd",
"ddddcgcgaa.fcgcgaagaddd",
"ddddgcgca..egcgcagaaddd",
"ddllcgcg...ecgcgagelddd",
"eeilglgcgkk#kkaeleeledd",
"eeilieeekk#keelllilllll"
};
