# target: pluginDebug.shlb
mozilla/modules/plugin/nglsrc/nsPluginFactory.cpp
mozilla/modules/plugin/nglsrc/nsPluginHostImpl.cpp
mozilla/modules/plugin/nglsrc/nsPluginInstancePeer.cpp
mozilla/modules/plugin/nglsrc/ns4xPlugin.cpp
mozilla/modules/plugin/nglsrc/ns4xPluginInstance.cpp
mozilla/modules/plugin/nglsrc/nsMalloc.cpp