# target: pngDebug.o
mozilla/modules/libimg/png/png.c
mozilla/modules/libimg/png/pngerror.c
mozilla/modules/libimg/png/pngget.c
mozilla/modules/libimg/png/pngmem.c
mozilla/modules/libimg/png/pngpread.c
mozilla/modules/libimg/png/pngread.c
mozilla/modules/libimg/png/pngrio.c
mozilla/modules/libimg/png/pngrtran.c
mozilla/modules/libimg/png/pngrutil.c
mozilla/modules/libimg/png/pngset.c
mozilla/modules/libimg/png/pngtrans.c
mozilla/modules/libimg/png/pngwio.c
mozilla/modules/libimg/png/pngwrite.c
mozilla/modules/libimg/png/pngwtran.c
mozilla/modules/libimg/png/pngwutil.c
