# target: htmlparserDebug.shlb
mozilla/htmlparser/robot/nsDebugRobot.cpp
mozilla/htmlparser/robot/nsRobotSink.cpp
mozilla/htmlparser/src/CNavDTD.cpp
mozilla/htmlparser/src/COtherDTD.cpp
mozilla/htmlparser/src/CParserContext.cpp
mozilla/htmlparser/src/CRtfDTD.cpp
mozilla/htmlparser/src/nsDTDDebug.cpp
mozilla/htmlparser/src/nsDTDUtils.cpp
mozilla/htmlparser/src/nsHTMLContentSinkStream.cpp
mozilla/htmlparser/src/nsHTMLEntities.cpp
mozilla/htmlparser/src/nsHTMLNullSink.cpp
mozilla/htmlparser/src/nsHTMLTags.cpp
mozilla/htmlparser/src/nsHTMLTokens.cpp
mozilla/htmlparser/src/nsLoggingSink.cpp
mozilla/htmlparser/src/nsParser.cpp
mozilla/htmlparser/src/nsParserFactory.cpp
mozilla/htmlparser/src/nsParserNode.cpp
mozilla/htmlparser/src/nsScanner.cpp
mozilla/htmlparser/src/nsToken.cpp
mozilla/htmlparser/src/nsTokenHandler.cpp
mozilla/htmlparser/src/nsValidDTD.cpp
mozilla/htmlparser/src/nsViewSourceHTML.cpp
mozilla/htmlparser/src/nsWellFormedDTD.cpp
mozilla/htmlparser/src/nsXIFDTD.cpp
