# target: viewerDebug
mozilla/cmd/macfe/central/mactime.c
mozilla/lib/libpwcac/pwcacapi.c
mozilla/lib/xp/allxpstr.c
mozilla/lib/xp/xp_hash.c
mozilla/lib/xp/xp_list.c
mozilla/lib/xp/xp_qsort.c
mozilla/lib/xp/xp_str.c
mozilla/modules/libpref/src/prefapi.c
mozilla/modules/libutil/src/obs.c
mozilla/webshell/tests/viewer/nsBrowserWindow.cpp
mozilla/webshell/tests/viewer/nsEditorInterfaces.cpp
mozilla/webshell/tests/viewer/nsEditorMode.cpp
mozilla/webshell/tests/viewer/nsMacMain.cpp
mozilla/webshell/tests/viewer/nsSetupRegistry.cpp
mozilla/webshell/tests/viewer/nsViewerApp.cpp
mozilla/webshell/tests/viewer/nsWebCrawler.cpp
