# target: rdf.shlb
mozilla/rdf/base/src/nsCompositeDataSource.cpp
mozilla/rdf/base/src/nsContainerCursor.cpp
mozilla/rdf/base/src/nsEmptyCursor.cpp
mozilla/rdf/base/src/nsInMemoryDataSource.cpp
mozilla/rdf/base/src/nsRDFContentSink.cpp
mozilla/rdf/base/src/nsRDFResource.cpp
mozilla/rdf/base/src/nsRDFService.cpp
mozilla/rdf/base/src/nsRDFXMLDataSource.cpp
mozilla/rdf/base/src/rdfutil.cpp
mozilla/rdf/build/nsRDFFactory.cpp
mozilla/rdf/content/src/nsJSElementObserver.cpp
mozilla/rdf/content/src/nsJSNodeObserver.cpp
mozilla/rdf/content/src/nsJSXULDocument.cpp
mozilla/rdf/content/src/nsJSXULElement.cpp
mozilla/rdf/content/src/nsRDFContentUtils.cpp
mozilla/rdf/content/src/nsRDFDocument.cpp
mozilla/rdf/content/src/nsRDFElement.cpp
mozilla/rdf/content/src/nsRDFHTMLBuilder.cpp
mozilla/rdf/content/src/nsRDFTreeBuilder.cpp
mozilla/rdf/content/src/nsRDFXULBuilder.cpp
mozilla/rdf/datasource/src/nsBookmarkDataSource.cpp
mozilla/rdf/datasource/src/nsMailDataSource.cpp
mozilla/rdf/datasource/src/nsXULContentSink.cpp
mozilla/rdf/datasource/src/nsXULDataSource.cpp